{
  "bookings": [
    {
      "id": "5b49e312-41e8-40ba-b2be-0f7a67d98356",
      "date": "2024-04-18T14:08:00.000Z",
      "time": "16:08",
      "level": "2",
      "client": "Lasse",
      "cleaner": "Boris",
      "status": true
    },
    {
      "id": "65bfc4ce-cf8c-4a30-9971-6a740f201a19",
      "date": "2024-04-02T15:10:00.000Z",
      "time": "17:10",
      "level": 0,
      "client": "Lasse",
      "cleaner": "Doris",
      "status": true
    },
    {
      "id": "1d59bbe4-3c07-44e0-8970-04a1713d1cfa",
      "date": "2024-04-04T10:52:00.000Z",
      "time": "12:52",
      "level": 0,
      "client": "Lasse",
      "cleaner": "Boris",
      "status": true
    },
    {
      "id": "0b39ed63-47eb-4354-a42d-684eb3122a36",
      "date": "2024-04-04T09:57:00.000Z",
      "time": "11:57",
      "level": 0,
      "client": "Lasse",
      "cleaner": "Britta",
      "status": false
    }
  ]
}